{"count":1180,"next":"http://staging.cuuhomientrung.info/api/cuuho/?limit=25&offset=25","previous":null,"results":[{"id":9,"tinh":3,"tinh_display":"TP Hồ Chí Minh","huyen":null,"huyen_display":"","xa":null,"xa_display":"","update_time":"2020-10-19T10:33:36.046000+07:00","name":"Thuyền lớn - Gia Ninh - Duy Ninh - Tân Ninh 2","status":1,"location":"","phone":"0985930974","note":"","thon":null,"volunteer":null},{"id":10,"tinh":3,"tinh_display":"TP Hồ Chí Minh","huyen":null,"huyen_display":"","xa":null,"xa_display":"","update_time":"2020-10-19T10:34:21.936000+07:00","name":"Thuyền lớn - Gia Ninh - Duy Ninh - Tân Ninh 3","status":1,"location":"","phone":"0968749580","note":"","thon":null,"volunteer":null},{"id":12,"tinh":3,"tinh_display":"TP Hồ Chí Minh","huyen":null,"huyen_display":"","xa":null,"xa_display":"","update_time":"2020-10-21T13:22:21.128000+07:00","name":"Thuyền lớn - Gia Ninh - Duy Ninh - Tân Ninh 4 (anh Trung)","status":1,"location":"Hải Ninh","phone":"0968749580","note":"","thon":null,"volunteer":null},{"id":13,"tinh":3,"tinh_display":"TP Hồ Chí Minh","huyen":null,"huyen_display":"","xa":null,"xa_display":"","update_time":"2020-10-19T10:35:35.270000+07:00","name":"Thuyền lớn - Gia Ninh - Duy Ninh - Tân Ninh 5","status":1,"location":"","phone":"0397580853","note":"","thon":null,"volunteer":null},{"id":14,"tinh":3,"tinh_display":"TP Hồ Chí Minh","huyen":null,"huyen_display":"","xa":null,"xa_display":"","update_time":"2020-10-19T10:36:03.585000+07:00","name":"Thuyền lớn - Gia Ninh - Duy Ninh - Tân Ninh 6","status":1,"location":"","phone":"0397580853","note":"","thon":null,"volunteer":null},{"id":15,"tinh":null,"tinh_display":"","huyen":null,"huyen_display":"","xa":null,"xa_display":"","update_time":"2020-10-19T10:36:53.162000+07:00","name":"Thuyền lớn - Gia Ninh - Duy Ninh - Tân Ninh 7","status":1,"location":"","phone":"0961576908","note":"","thon":null,"volunteer":null},{"id":17,"tinh":3,"tinh_display":"TP Hồ Chí Minh","huyen":null,"huyen_display":"","xa":null,"xa_display":"","update_time":"2020-10-21T15:31:09.243000+07:00","name":"Cán bộ đoàn cứu trợ","status":1,"location":"","phone":"0888417686","note":"","thon":null,"volunteer":null},{"id":18,"tinh":3,"tinh_display":"TP Hồ Chí Minh","huyen":null,"huyen_display":"","xa":null,"xa_display":"","update_time":"2020-10-21T15:31:45.402000+07:00","name":"Cán bộ đoàn cứu trợ","status":1,"location":"","phone":"0964100235","note":"","thon":null,"volunteer":59},{"id":19,"tinh":3,"tinh_display":"TP Hồ Chí Minh","huyen":null,"huyen_display":"","xa":null,"xa_display":"","update_time":"2020-10-19T10:41:03.988000+07:00","name":"Anh Dũng - Quanh Dinh 10","status":1,"location":"","phone":"0984551938","note":"CLB Thuyền HN đã vào đến QB","thon":null,"volunteer":null},{"id":20,"tinh":3,"tinh_display":"TP Hồ Chí Minh","huyen":null,"huyen_display":"","xa":null,"xa_display":"","update_time":"2020-10-19T10:41:48.361000+07:00","name":"Anh Bình Giun - Quanh Dinh 10","status":1,"location":"","phone":"0754757775","note":"CLB Thuyền HN đã vào đến QB","thon":null,"volunteer":null},{"id":21,"tinh":3,"tinh_display":"TP Hồ Chí Minh","huyen":null,"huyen_display":"","xa":null,"xa_display":"","update_time":"2020-10-21T15:33:49.754000+07:00","name":"Anh Bình Giun","status":1,"location":"","phone":"0985493818","note":"CLB Thuyền HN đã vào đến QB","thon":null,"volunteer":59},{"id":22,"tinh":3,"tinh_display":"TP Hồ Chí Minh","huyen":null,"huyen_display":"","xa":null,"xa_display":"","update_time":"2020-10-19T10:42:37.720000+07:00","name":"Anh Thành Lủi","status":1,"location":"","phone":"0982860999","note":"CLB Thuyền HN đã vào đến QB","thon":null,"volunteer":null},{"id":23,"tinh":null,"tinh_display":"","huyen":null,"huyen_display":"","xa":null,"xa_display":"","update_time":"2020-10-19T10:42:59.841000+07:00","name":"Anh Hữu Hạnh - Quanh Dinh 10","status":0,"location":"","phone":"0989663567","note":"CLB Thuyền HN đã vào đến QB","thon":null,"volunteer":null},{"id":26,"tinh":3,"tinh_display":"TP Hồ Chí Minh","huyen":null,"huyen_display":"","xa":null,"xa_display":"","update_time":"2020-10-19T10:47:47.986000+07:00","name":"Anh Hùng - xã Cam, Thanh, Hồng","status":1,"location":"","phone":"0372020200","note":"","thon":null,"volunteer":null},{"id":27,"tinh":8,"tinh_display":"Quảng Bình","huyen":186,"huyen_display":"Tỉnh Quảng Bình","xa":null,"xa_display":"","update_time":"2020-10-21T15:38:44.516000+07:00","name":"Anh Nam - Trưởng công an xã Cam","status":1,"location":"Cam Thủy","phone":"0915391259","note":"5 thuyền cứu hộ đang vào","thon":null,"volunteer":59},{"id":35,"tinh":3,"tinh_display":"TP Hồ Chí Minh","huyen":null,"huyen_display":"","xa":null,"xa_display":"","update_time":"2020-10-19T11:00:21.181000+07:00","name":"Cano cứu hộ","status":1,"location":"","phone":"0889987373","note":"","thon":null,"volunteer":null},{"id":38,"tinh":2,"tinh_display":"Quảng Trị","huyen":null,"huyen_display":"","xa":null,"xa_display":"","update_time":"2020-10-19T11:01:32.869000+07:00","name":"Cana anh em HN và ĐN","status":0,"location":"","phone":"0934441141","note":"","thon":null,"volunteer":null},{"id":39,"tinh":3,"tinh_display":"TP Hồ Chí Minh","huyen":null,"huyen_display":"","xa":null,"xa_display":"","update_time":"2020-10-19T11:01:46.302000+07:00","name":"Cứu hộ Quảng Bình","status":1,"location":"","phone":"0905551358","note":"","thon":null,"volunteer":null},{"id":41,"tinh":3,"tinh_display":"TP Hồ Chí Minh","huyen":null,"huyen_display":"","xa":null,"xa_display":"","update_time":"2020-10-21T15:49:58.800000+07:00","name":"Xe cần cẩu xuyên đêm","status":1,"location":"","phone":"0905429999","note":"","thon":null,"volunteer":59},{"id":47,"tinh":3,"tinh_display":"TP Hồ Chí Minh","huyen":null,"huyen_display":"","xa":null,"xa_display":"","update_time":"2020-10-19T11:04:51.313000+07:00","name":"A Mười - VĨNH NINH","status":1,"location":"","phone":"0916392128","note":"","thon":null,"volunteer":null},{"id":48,"tinh":3,"tinh_display":"TP Hồ Chí Minh","huyen":null,"huyen_display":"","xa":null,"xa_display":"","update_time":"2020-10-21T15:53:47.406000+07:00","name":"A Phùng - VĨNH NINH","status":1,"location":"Vĩnh Ninh","phone":"0855526707","note":"","thon":null,"volunteer":59},{"id":49,"tinh":3,"tinh_display":"TP Hồ Chí Minh","huyen":null,"huyen_display":"","xa":null,"xa_display":"","update_time":"2020-10-21T15:55:19.459000+07:00","name":"A Tỉnh -VĨNH NINH","status":1,"location":"Vĩnh Ninh","phone":"0858642699","note":"","thon":null,"volunteer":59},{"id":50,"tinh":3,"tinh_display":"TP Hồ Chí Minh","huyen":null,"huyen_display":"","xa":null,"xa_display":"","update_time":"2020-10-19T11:05:51.728000+07:00","name":"A Đang - VĨNH NINH","status":1,"location":"","phone":"0918555168","note":"","thon":null,"volunteer":null},{"id":51,"tinh":3,"tinh_display":"TP Hồ Chí Minh","huyen":null,"huyen_display":"","xa":null,"xa_display":"","update_time":"2020-10-19T11:06:04.021000+07:00","name":"A Trọng\tHÀM NINH","status":1,"location":"","phone":"0913323637","note":"","thon":null,"volunteer":null},{"id":52,"tinh":3,"tinh_display":"TP Hồ Chí Minh","huyen":null,"huyen_display":"","xa":null,"xa_display":"","update_time":"2020-10-21T15:57:05.200000+07:00","name":"A Hưng - HÀM NINH","status":1,"location":"Hàm Ninh","phone":"0918257937","note":"","thon":null,"volunteer":59}]}